Social Media Mining with R
…
  tokens
}

Tokenization

facebook_tokens <- tokenize("300_posts_comments", "comments") %>% 
  extract_non_base() %>% 
  extract_plural()

tripadvisor_tokens <- tokenize("tripadvisor_turkishairlines6846.rds", "review") %>% 
  extract_non_base() %>% 
  extract_plural()

## # A tibble: 32,200 x 2
##    response_number word   
##    <chr>           <chr>  
##  1 1               direct 
##  2 1               flight 
##  3 1               from   
##  4 1               ireland
##  5 1               to     
##  6 1               bodrum 
##  7 1               badly  
##  8 1               need   
##  9 1               even   
## 10 1               twice  
## # ... with 32,190 more rows

## # A tibble: 326,163 x 2
##    response_number word      
##    <chr>           <chr>     
##  1 1               to        
##  2 1               start     
##  3 1               with      
##  4 1               me        
##  5 1               and       
##  6 1               my        
##  7 1               sister    
##  8 1               had       
##  9 1               a         
## 10 1               connection
## # ... with 326,153 more rows

Word Count

## # A tibble: 7,622 x 2
##    word         n
##    <chr>    <int>
##  1 fly        236
##  2 love       224
##  3 istanbul   185
##  4 nice       141
##  5 service     96
##  6 travel      89
##  7 day         84
##  8 3           82
##  9 time        79
## 10 world       70
## # ... with 7,612 more rows

## # A tibble: 8,819 x 2
##    word         n
##    <chr>    <int>
##  1 service   3067
##  2 food      3042
##  3 istanbul  2531
##  4 fly       2431
##  5 time      2310
##  6 seat      1991
##  7 staff     1419
##  8 travel    1223
##  9 class     1167
## 10 plane     1025
## # ... with 8,809 more rows
…
Indexed Tokenization

## # A tibble: 23,953 x 4
##    post_number response_number word      type 
##          <dbl>           <int> <chr>     <chr>
##  1         293               1 direct    photo
##  2         293               1 ireland   photo
##  3         293               1 bodrum    photo
##  4         293               1 badly     photo
##  5         293               1 week      photo
##  6         293               1 summer    photo
##  7         293               1 fantastic photo
##  8         293               2 curious   photo
##  9         293               2 tbilisi   photo
## 10         293               3 fligths   photo
## # ... with 23,943 more rows

## # A tibble: 125,065 x 3
## # Groups:   id [6,846]
##    id          response_number word        
##    <chr>                 <dbl> <chr>       
##  1 rn342674723               1 ticket      
##  2 rn342674723               1 receive     
##  3 rn342674723               1 promised.the
##  4 rn342674723               1 connection  
##  5 rn342674723               1 istanbul    
##  6 rn342674723               1 leave       
##  7 rn342674723               1 immediately 
##  8 rn342674723               1 dubai       
##  9 rn342674723               1 arrive      
## 10 rn342674723               1 grind       
## # ... with 125,055 more rows
…
facebook_sentiments_afinn <- sentiments_afinn(tidy_response_facebook)
tripadvisor_sentiments_afinn <- sentiments_afinn(tidy_response_tripadvisor)

facebook_sentiments_bing %>% 
  dplyr::select(response_number, negative, positive, sentiment) 

## # A tibble: 1,588 x 4
##    response_number negative positive sentiment
##              <int>    <dbl>    <dbl>     <dbl>
##  1               1        0        1         1
##  2               2        0        1         1
##  3               3        0        1         1
##  4               3        1        0        -1
##  5               4        0        1         1
##  6               2        0        1         1
##  7               3        3        1        -2
##  8              18        0        1         1
##  9              21        0        2         2
## 10              23        0        1         1
## # ... with 1,578 more rows

tripadvisor_sentiments_bing 

## # A tibble: 6,426 x 5
##    id          response_number negative positive sentiment
##    <chr>                 <dbl>    <dbl>    <dbl>     <dbl>
##  1 rn342674723               1        1        0        -1
##  2 rn342740773               2        1        3         2
##  3 rn342772345               3        4        1        -3
##  4 rn342937701               4        0        3         3
##  5 rn343011985               5        1        1         0
##  6 rn343117108               6        0        1         1
##  7 rn343117743               7        0        2         2
##  8 rn343141565               8        4        2        -2
##  9 rn343168849               9        0        4         4
## 10 rn343189478              10        0        3         3
## # ... with 6,416 more rows

facebook_sentiments_nrc 

## # A tibble: 1,895 x 13
##    id      response_number anger anticipation disgust  fear   joy negative
##    <chr>             <int> <dbl>        <dbl>   <dbl> <dbl> <dbl>    <dbl>
##  1 904300               1     0            0       0     0     2        0
##  2 904300               2     0            0       0     0     1        0
##  3 904300               3     0            0       0     0     1        0
##  4 904300               4     0            0       0     0     0        0
##  5 904300               1     0            1       0     0     0        1
##  6 904300               4     0            0       0     0     0        0
##  7 904300               2     1            2       0     1     1        0
##  8 904300               3     0            0       0     0     0        3
##  9 904300               4     0            0       0     1     0        0
## 10 904300               5     0            1       0     0     0        0
## # ... with 1,885 more rows, and 5 more variables: positive <dbl>,
## #   sadness <dbl>, surprise <dbl>, trust <dbl>, sentiment <dbl>

tripadvisor_sentiments_nrc 

## # A tibble: 6,796 x 13
##    id      response_number anger anticipation disgust  fear   joy negative
##    <chr>             <dbl> <dbl>        <dbl>   <dbl> <dbl> <dbl>    <dbl>
##  1 rn3426               1     0            2       0     0     0        2
##  2 rn3427               2     1            2       1     2     3        0
##  3 rn3427               3     2            0       2     1     0        3
##  4 rn3429               4     0            2       0     0     3        0
##  5 rn3430               5     1            2       1     1     1        1
##  6 rn3431               6     0            2       0     0     1        0
##  7 rn3431               7     0            3       0     0     4        0
##  8 rn3431               8     1            1       1     2     2        4
##  9 rn3431               9     0            3       0     0     3        0
## 10 rn3431              10     1            2       0     1     2        0
## # ... with 6,786 more rows, and 5 more variables: positive <dbl>,
## #   sadness <dbl>, surprise <dbl>, trust <dbl>, sentiment <dbl>

facebook_sentiments_afinn 

## # A tibble: 1,647 x 3
## # Groups:   id [?]
##    id                            response_number score
##    <chr>                                   <int> <int>
##  1 90430042759_10155125620582760               1     5
##  2 90430042759_10155125620582760               2     3
##  3 90430042759_10155125620582760               3     3
##  4 90430042759_10155125620582760               7     2
##  5 90430042759_10155126945012760               3     2
##  6 90430042759_10155126945012760               4     2
##  7 90430042759_10155129495572760               2     3
##  8 90430042759_10155129495572760               3    -3
##  9 90430042759_10155129495572760              11    -1
## 10 90430042759_10155129495572760              18     1
## # ... with 1,637 more rows

tripadvisor_sentiments_afinn

## # A tibble: 6,139 x 3
## # Groups:   id [?]
##    id          response_number score
##    <chr>                 <dbl> <int>
##  1 rn342674723               1     0
##  2 rn342740773               2     7
##  3 rn342772345               3    -2
##  4 rn342937701               4     5
##  5 rn343011985               5    -3
##  6 rn343117108               6     2
##  7 rn343117743               7     5
##  8 rn343141565               8    -5
##  9 rn343168849               9     6
## 10 rn343189478              10     7
## # ... with 6,129 more rows

Sentiments to All Words Ratio

## # A tibble: 192 x 5
##    id                           response_number negativewords  word  ratio
##    <chr>                                  <int>         <int> <int>  <dbl>
##  1 90430042759_101551815520227             281             1     2 0.5   
##  2 90430042759_101551815520227             805             1     2 0.5   
##  3 90430042759_101551815520227             661             1     3 0.333 
##  4 90430042759_101551815520227             687             1     3 0.333 
##  5 90430042759_101551815520227             503             2    11 0.182 
##  6 90430042759_101551815520227             358             1     6 0.167 
##  7 90430042759_101551815520227             314             1     7 0.143 
##  8 90430042759_101551815520227             157             1     8 0.125 
##  9 90430042759_101551815520227             475             1    10 0.1   
## 10 90430042759_101551815520227              69             2    30 0.0667
## # ... with 182 more rows

## # A tibble: 3,389 x 5
##    id          response_number negativewords  word ratio
##    <chr>                 <dbl>         <int> <int> <dbl>
##  1 rn541387435            4976             5     7 0.714
##  2 rn465760178            3008             4     8 0.5  
##  3 rn525881971            4705             4     8 0.5  
##  4 rn518927507            4384             5    11 0.455
##  5 rn513737468            3993             4     9 0.444
##  6 rn425622278            2284             9    21 0.429
##  7 rn557983424            5965             3     7 0.429
##  8 rn569818446            6477             3     7 0.429
##  9 rn530267095            4794             4    10 0.4  
## 10 rn547414313            5547             4    10 0.4  
## # ... with 3,379 more rows

## # A tibble: 1 x 2
## # Groups:   id [1]
##   review                                                           id     
##   <chr>                                                            <chr>  
## 1 "\nthe flight was very bad and the food very bad it so bad and  rn5413

Most Frequent Sentiments

## # A tibble: 383 x 3
##    word            sentiment     n
##    <chr>           <chr>     <int>
##  1 love            positive    328
##  2 nice            positive    155
##  3 beautiful       positive     87
##  4 congratulations positive     83
##  5 wow             positive     80
##  6 amaze           positive     73
##  7 free            positive     72
##  8 happy           positive     69
##  9 bless           positive     45
## 10 super           positive     37
## # ... with 373 more rows

## # A tibble: 1,310 x 3
##    word        sentiment     n
##    <chr>       <chr>     <int>
##  1 comfortable positive   1026
##  2 excellent   positive    927
##  3 nice        positive    816
##  4 friendly    positive    700
##  5 delay       negative    552
##  6 helpful     positive    472
##  7 clean       positive    406
##  8 free        positive    399
##  9 bad         negative    324
## 10 recommend   positive    318
## # ... with 1,300 more rows
…
